{
  "version": 1,
  "serviceConfiguration": {
    "apiName": "userregserverless",
    "serviceName": "AppSync",
    "defaultAuthType": {
      "mode": "API_KEY",
      "expirationTime": 7,
      "apiKeyExpirationDate": "2024-07-05T19:15:27.604Z",
      "keyDescription": ""
    },
    "additionalAuthTypes": [
      {
        "mode": "AMAZON_COGNITO_USER_POOLS",
        "cognitoUserPoolId": "authuserregserverless60ba79ef"
      }
    ],
    "conflictResolution": {}
  }
}